{
  "port": "8080",
  "database": {
    "addr": "127.0.0.1:5432",
    "username": "postgres",
    "password": "",
    "database_name": "service-configurator"
  },
  "typeregexp": "([^\\s]+).([^\\s]+)",
  "dataregexp": "([^\\s]+).([^\\s]+)",
  "datadelim": ".",
  "debug": "true"
}